# Blender MTL File: 'None'
# Material Count: 5

newmtl Material__26
Ns 323.999994
Ka 1.000000 1.000000 1.000000
Kd 0.870000 0.800000 0.520000
Ks 0.500000 0.500000 0.500000
Ke 0.0 0.0 0.0
Ni 1.000000
d 1.000000
illum 2

newmtl Material__37
Ns 323.999994
Ka 1.000000 1.000000 1.000000
Kd 1.000000 1.000000 1.000000
Ks 0.500000 0.500000 0.500000
Ke 0.0 0.0 0.0
Ni 1.000000
d 1.000000
illum 2

newmtl Material__38
Ns 323.999994
Ka 1.000000 1.000000 1.000000
Kd 0.900000 0.100000 0.100000
Ks 0.500000 0.500000 0.500000
Ke 0.0 0.0 0.0
Ni 1.000000
d 1.000000
illum 2

newmtl Material__39
Ns 323.999994
Ka 1.000000 1.000000 1.000000
Kd 1.000000 1.000000 1.000000
Ks 0.500000 0.500000 0.500000
Ke 0.0 0.0 0.0
Ni 1.000000
d 1.000000
illum 2

newmtl Material__40
Ns 323.999994
Ka 1.000000 1.000000 1.000000
Kd 0.000000 0.100000 1.000000
Ks 0.500000 0.500000 0.500000
Ke 0.0 0.0 0.0
Ni 1.000000
d 1.000000
illum 2
